Seq ID	Sequence	K* Score (Log10)	K* Lower Bound	K* Upper Bound	Total # Confs.	Complex Partition Function	Complex Epsilon	Complex # Confs.	Protein Partition Function	Protein Epsilon	Protein # Confs.	Ligand Partition Function	Ligand Epsilon	Ligand # Confs.	Time (sec)
0	A612=tyr A613=gln A614=gly A615=val A647=ala B734=thr B735=ser B736=val B858=leu B860=val B861=leu	1.727311	0.228449	3.718436	1688	1.315767e+57	0.9897935615087289	1589	1.612954e+23	0.27027272246121614	41	1.528433e+32	0.9565512393881604	58	3245
1	A612=tyr A613=gln A614=gly A615=val A647=ala B734=thr B735=ser B736=val B858=leu B860=val B861=GLU	2.655826	1.066908	4.647614	1725	1.418076e+58	0.9898091076616718	1637	1.612954e+23	0.27027272246121614	41	1.942010e+32	0.9646880965753205	47	8265
2	A612=tyr A613=gln A614=gly A615=val A647=ala B734=thr B735=ser B736=val B858=leu B860=ASP B861=leu	2.254578	0.556473	4.246392	2036	8.905285e+55	0.9898097214924417	1954	1.612954e+23	0.27027272246121614	41	3.072189e+30	0.9725378327323105	41	12189
3	A612=tyr A613=gln A614=gly A615=val A647=ala B734=thr B735=ser B736=val B858=ASP B860=val B861=leu	1.996836	0.617905	3.981507	921	6.589738e+55	0.9896407503218716	839	1.612954e+23	0.27027272246121614	41	4.115384e+30	0.9427323898171922	41	13760
4	A612=tyr A613=gln A614=gly A615=val A647=ala B734=thr B735=ser B736=ASP B858=leu B860=val B861=leu	2.339392	0.533106	4.337650	6106	6.033355e+54	0.9899598004495681	5987	1.612954e+23	0.27027272246121614	41	1.712162e+29	0.9785931164011157	78	25278
5	A612=tyr A613=gln A614=gly A615=val A647=ala B734=thr B735=GLU B736=val B858=leu B860=val B861=leu	2.349982	1.085332	4.336324	1044	6.404148e+57	0.9896805190551692	961	1.612954e+23	0.27027272246121614	41	1.773607e+32	0.9254943151006043	42	27811
6	A612=tyr A613=gln A614=gly A615=val A647=ala B734=ASP B735=ser B736=val B858=leu B860=val B861=leu	2.299017	0.550646	4.294430	3376	2.169641e+55	0.989893829634502	3288	1.612954e+23	0.27027272246121614	41	6.756926e+29	0.9755392965523237	47	33911
7	A612=tyr A613=gln A614=gly A615=val A647=GLU B734=thr B735=ser B736=val B858=leu B860=val B861=leu	2.604964	1.044344	4.598108	1831	1.104423e+59	0.9898408925042314	1728	1.794425e+24	0.3670016309787756	45	1.528433e+32	0.9565512393881604	58	37926
8	A612=tyr A613=gln A614=gly A615=GLU A647=ala B734=thr B735=ser B736=val B858=leu B860=val B861=leu	2.096893	0.238354	4.094988	5258	1.329912e+56	0.9899560401727437	5159	6.961183e+21	0.6812259133181807	41	1.528433e+32	0.9565512393881604	58	49902
9	A612=tyr A613=gln A614=ASP A615=val A647=ala B734=thr B735=ser B736=val B858=leu B860=val B861=leu	2.363494	0.877868	4.355803	1572	1.405450e+57	0.9898213292727156	1471	3.981755e+22	0.24769115177484083	43	1.528433e+32	0.9565512393881604	58	53031
